…
kmers <- mutate(seqs, 
                kmers = get_kmers(seq)) %>% 
                select(header, kmers) 
                
kmers
#> # A tibble: 2 x 2
#>   header           kmers                
#>   <chr>            <list>               
#> 1 chr1:20000-20500 <data.frame [16 × 2]>
#> 2 chr1:25000-25500 <data.frame [16 × 2]>

unnest(kmers)
#> # A tibble: 32 x 3
#>    header           kmer  counts
#>    <chr>            <chr>  <int>
#>  1 chr1:20000-20500 AA        51
#>  2 chr1:20000-20500 AC        28
#>  3 chr1:20000-20500 AG        47
#>  4 chr1:20000-20500 AT        29
#>  5 chr1:20000-20500 CA        50
#>  6 chr1:20000-20500 CC        24
#>  7 chr1:20000-20500 CG         9
#>  8 chr1:20000-20500 CT        27
#>  9 chr1:20000-20500 GA        39
#> 10 chr1:20000-20500 GC        31
#> # ... with 22 more rows
```
…
